Plot Lottery
…
raw_names <- names(lottery_raw)
lottery <- lottery_raw %>% 
  setNames(c("period", "date", "sales", "total_rewards", 
             paste0("n",1:6), "s", 
             sprintf("n_%s_prize", 1:8),
             sprintf("money_%s_prize", 1:8))) %>% 
  separate(date, into = c("year", "mm", "dd")) %>% 
  mutate(year = as.integer(year)+1911) %>% 
  unite(date, year, mm, dd, sep="-", remove=TRUE) %>% 
  mutate(date = as.Date(date))
int_cols <- names(lottery) %>% grep("^n_", ., value =  TRUE)
num_cols <- names(lottery) %>% grep("^money|rewards|sales", ., value =  TRUE)
lottery[, (int_cols) := lapply(.SD, as.integer), .SDcols = int_cols][
  , (num_cols) := lapply(.SD, as.numeric), .SDcols = num_cols]
#> Source: local data table [287 x 27]
#> 
#> # tbl_dt [287  27]
#>       period       date     sales total_rewards    n1    n2    n3    n4
#> *      <chr>     <date>     <dbl>         <dbl> <chr> <chr> <chr> <chr>
#> 1  105000070 2016-08-09  79682500      43825375    15    37    35    17
#> 2  105000069 2016-08-05 106107950     306863197    27    40    02    35
#> 3  105000068 2016-08-02 100001650     284598110    15    04    20    22
#> 4  105000067 2016-07-29  98424000     260310379    28    09    27    15
#> 5  105000066 2016-07-26  95455250     239899326    35    41    19    22
#> 6  105000065 2016-07-22  92361650     216141278    17    10    33    02
#> 7  105000064 2016-07-19  88800350     193957335    07    46    40    33
#> 8  105000063 2016-07-15  89791000     175442258    29    24    25    35
#> 9  105000062 2016-07-12  84696350     151879481    42    31    46    43
#> 10 105000061 2016-07-08  69608650     132848889    13    10    09    19
#> # ... with 277 more rows, and 19 more variables: n5 <chr>, n6 <chr>,
#> #   s <chr>, n_1_prize <int>, n_2_prize <int>, n_3_prize <int>,
#> #   n_4_prize <int>, n_5_prize <int>, n_6_prize <int>, n_7_prize <int>,
#> #   n_8_prize <int>, money_1_prize <dbl>, money_2_prize <dbl>,
#> #   money_3_prize <dbl>, money_4_prize <dbl>, money_5_prize <dbl>,
#> #   money_6_prize <dbl>, money_7_prize <dbl>, money_8_prize <dbl>
…
