Salary
…
d <- salary_df %>% 
  left_join(cpi_df, by = "month") %>%  #  CPI 
  mutate(real_wage =  / CPI * 100)  # 
# 
d_now <- d %>% 
  select(, month, real_wage) %>% 
  group_by() %>% 
  filter(month == max(month, na.rm = TRUE))
d_now
#> Source: local data frame [70 x 3]
#> Groups:  [69]
#> 
#>                                            month real_wage
#>                                    <fctr>     <date>     <dbl>
#> 1                                   2008-12-01  23437.09
#> 2   2008-12-01  50620.47
#> 3                         2008-12-01  32283.91
#> 4                         2016-05-01  41536.10
#> 5                                   2016-05-01  34638.00
#> 6                         2016-05-01  62461.21
#> 7                     2016-05-01  34122.77
#> 8                                   2016-05-01  37139.44
#> 9                             2016-05-01  36227.73
#> 10                            2016-05-01  39596.82
#> # ... with 60 more rows
…
